[2014-04-15 10:43:08] Testing DB connection.
[2014-04-15 10:43:09] Converting to web project...
[2014-04-15 10:43:09] Conversion finished.
[2014-04-15 10:43:09] Copying files...
[2014-04-15 10:43:09] CMS_PROJ\CMS\Admin
[2014-04-15 10:43:09] F:\CMS\Admin\CMSAdministration.aspx
[2014-04-15 10:43:09] F:\CMS\Admin\CMSAdministration.aspx.cs
[2014-04-15 10:43:09] CMS_PROJ\CMS\App_Code\CMS
[2014-04-15 10:43:09] F:\CMS\App_Code\CMS\UpgradeProcedure.cs
[2014-04-15 10:43:09] CMS_PROJ\CMS\App_Code\CMSModules\SocialMarketing
[2014-04-15 10:43:09] F:\CMS\App_Code\CMSModules\SocialMarketing\SocialMarketingUpgradeProcedure.cs
[2014-04-15 10:43:09] CMS_PROJ\CMS\App_Code\CMSModules\WebFarm
[2014-04-15 10:43:09] F:\CMS\App_Code\CMSModules\WebFarm\WebFarmServerEditExtender.cs
[2014-04-15 10:43:09] CMS_PROJ\CMS\App_Code\CMSModules
[2014-04-15 10:43:09] CMS_PROJ\CMS\App_Code
[2014-04-15 10:43:09] CMS_PROJ\CMS\App_Data\Install
[2014-04-15 10:43:10] F:\CMS\App_Data\Install\SQL.zip
[2014-04-15 10:43:10] CMS_PROJ\CMS\App_Data
[2014-04-15 10:43:10] CMS_PROJ\CMS\App_Themes\Default\CMSComponents
[2014-04-15 10:43:10] F:\CMS\App_Themes\Default\CMSComponents\combination-panel.less
[2014-04-15 10:43:10] F:\CMS\App_Themes\Default\CMSComponents\header-actions.less
[2014-04-15 10:43:10] F:\CMS\App_Themes\Default\CMSComponents\tree.less
[2014-04-15 10:43:10] CMS_PROJ\CMS\App_Themes\Default\CMSModules\cms.socialmarketing
[2014-04-15 10:43:10] F:\CMS\App_Themes\Default\CMSModules\cms.socialmarketing\cms.socialmarketing.autopost.less
[2014-04-15 10:43:10] CMS_PROJ\CMS\App_Themes\Default\CMSModules
[2014-04-15 10:43:10] CMS_PROJ\CMS\App_Themes\Default\Images
[2014-04-15 10:43:10] F:\CMS\App_Themes\Default\Images\Images.zip
[2014-04-15 10:43:10] CMS_PROJ\CMS\App_Themes\Default
[2014-04-15 10:43:10] F:\CMS\App_Themes\Default\bootstrap-additional.css
[2014-04-15 10:43:10] F:\CMS\App_Themes\Default\DesignMode.css
[2014-04-15 10:43:10] F:\CMS\App_Themes\Default\DesignMode.less
[2014-04-15 10:43:10] CMS_PROJ\CMS\App_Themes
[2014-04-15 10:43:10] CMS_PROJ\CMS\CMSAdminControls\UI\PageElements
[2014-04-15 10:43:10] F:\CMS\CMSAdminControls\UI\PageElements\BreadCrumbs.ascx.cs
[2014-04-15 10:43:10] CMS_PROJ\CMS\CMSAdminControls\UI\UIProfiles
[2014-04-15 10:43:10] F:\CMS\CMSAdminControls\UI\UIProfiles\UIMenu.ascx.cs
[2014-04-15 10:43:10] CMS_PROJ\CMS\CMSAdminControls\UI
[2014-04-15 10:43:10] CMS_PROJ\CMS\CMSAdminControls
[2014-04-15 10:43:10] CMS_PROJ\CMS\CMSMasterPages\UI
[2014-04-15 10:43:10] F:\CMS\CMSMasterPages\UI\Tree.master
[2014-04-15 10:43:10] F:\CMS\CMSMasterPages\UI\Tree.master.cs
[2014-04-15 10:43:10] CMS_PROJ\CMS\CMSMasterPages
[2014-04-15 10:43:10] CMS_PROJ\CMS\CMSModules\AdminControls\Controls\Class
[2014-04-15 10:43:10] F:\CMS\CMSModules\AdminControls\Controls\Class\ClassFields.ascx.cs
[2014-04-15 10:43:10] F:\CMS\CMSModules\AdminControls\Controls\Class\Layout.ascx.cs
[2014-04-15 10:43:10] F:\CMS\CMSModules\AdminControls\Controls\Class\NewClassWizard.ascx.cs
[2014-04-15 10:43:10] CMS_PROJ\CMS\CMSModules\AdminControls\Controls\Documents
[2014-04-15 10:43:10] F:\CMS\CMSModules\AdminControls\Controls\Documents\Documents.ascx.cs
[2014-04-15 10:43:10] CMS_PROJ\CMS\CMSModules\AdminControls\Controls\MetaFiles
[2014-04-15 10:43:10] F:\CMS\CMSModules\AdminControls\Controls\MetaFiles\FileList.ascx.cs
[2014-04-15 10:43:10] CMS_PROJ\CMS\CMSModules\AdminControls\Controls\UIControls
[2014-04-15 10:43:10] F:\CMS\CMSModules\AdminControls\Controls\UIControls\GeneralSelector.ascx.cs
[2014-04-15 10:43:10] CMS_PROJ\CMS\CMSModules\AdminControls\Controls
[2014-04-15 10:43:10] CMS_PROJ\CMS\CMSModules\AdminControls
[2014-04-15 10:43:10] CMS_PROJ\CMS\CMSModules\BizForms\Tools
[2014-04-15 10:43:10] F:\CMS\CMSModules\BizForms\Tools\BizForm_Edit_Autoresponder.aspx.cs
[2014-04-15 10:43:10] F:\CMS\CMSModules\BizForms\Tools\BizForm_Edit_NotificationEmail.aspx.cs
[2014-04-15 10:43:10] CMS_PROJ\CMS\CMSModules\BizForms
[2014-04-15 10:43:10] CMS_PROJ\CMS\CMSModules\Blogs\Controls
[2014-04-15 10:43:10] F:\CMS\CMSModules\Blogs\Controls\CommentFilter.ascx.cs
[2014-04-15 10:43:10] CMS_PROJ\CMS\CMSModules\Blogs
[2014-04-15 10:43:10] CMS_PROJ\CMS\CMSModules\Chat\CMSPages\Scripts
[2014-04-15 10:43:10] F:\CMS\CMSModules\Chat\CMSPages\Scripts\ChatManager.js
[2014-04-15 10:43:10] CMS_PROJ\CMS\CMSModules\Chat\CMSPages
[2014-04-15 10:43:10] CMS_PROJ\CMS\CMSModules\Chat
[2014-04-15 10:43:10] F:\CMS\CMSModules\ContactManagement\Controls\UI\Account\Subsidiaries.ascx.cs
[2014-04-15 10:43:10] F:\CMS\CMSModules\ContactManagement\Controls\UI\ContactGroup\Accounts.ascx.cs
[2014-04-15 10:43:10] F:\CMS\CMSModules\ContactManagement\Controls\UI\ContactGroup\Contacts.ascx.cs
[2014-04-15 10:43:10] CMS_PROJ\CMS\CMSModules\ContactManagement\Controls\UI
[2014-04-15 10:43:10] CMS_PROJ\CMS\CMSModules\ContactManagement\Controls
[2014-04-15 10:43:10] CMS_PROJ\CMS\CMSModules\ContactManagement
[2014-04-15 10:43:10] CMS_PROJ\CMS\CMSModules\Content\CMSDesk\Properties
[2014-04-15 10:43:10] F:\CMS\CMSModules\Content\CMSDesk\Properties\CreateWireframe.aspx
[2014-04-15 10:43:10] F:\CMS\CMSModules\Content\CMSDesk\Properties\CreateWireframe.aspx.cs
[2014-04-15 10:43:10] F:\CMS\CMSModules\Content\CMSDesk\Properties\LinkedDocs.aspx.cs
[2014-04-15 10:43:10] F:\CMS\CMSModules\Content\CMSDesk\Properties\LinkedDocs.xml
[2014-04-15 10:43:10] CMS_PROJ\CMS\CMSModules\Content\CMSDesk
[2014-04-15 10:43:10] F:\CMS\CMSModules\Content\CMSDesk\Default.aspx.cs
[2014-04-15 10:43:10] F:\CMS\CMSModules\Content\Controls\Dialogs\General\WidthHeightSelector.ascx.cs
[2014-04-15 10:43:10] CMS_PROJ\CMS\CMSModules\Content\Controls\Dialogs
[2014-04-15 10:43:10] CMS_PROJ\CMS\CMSModules\Content\Controls\Relationships
[2014-04-15 10:43:10] F:\CMS\CMSModules\Content\Controls\Relationships\AddRelatedDocument.ascx
[2014-04-15 10:43:10] F:\CMS\CMSModules\Content\Controls\Relationships\AddRelatedDocument.ascx.cs
[2014-04-15 10:43:10] CMS_PROJ\CMS\CMSModules\Content\Controls
[2014-04-15 10:43:10] F:\CMS\CMSModules\Content\Controls\DragOperation.ascx
[2014-04-15 10:43:10] CMS_PROJ\CMS\CMSModules\Content\FormControls\Relationships
[2014-04-15 10:43:10] F:\CMS\CMSModules\Content\FormControls\Relationships\RelatedDocuments.ascx.cs
[2014-04-15 10:43:10] CMS_PROJ\CMS\CMSModules\Content\FormControls
[2014-04-15 10:43:10] CMS_PROJ\CMS\CMSModules\Content
[2014-04-15 10:43:10] CMS_PROJ\CMS\CMSModules\DocumentTypes\Pages\Development
[2014-04-15 10:43:10] F:\CMS\CMSModules\DocumentTypes\Pages\Development\HierarchicalTransformations_New.aspx.cs
[2014-04-15 10:43:10] CMS_PROJ\CMS\CMSModules\DocumentTypes\Pages
[2014-04-15 10:43:10] CMS_PROJ\CMS\CMSModules\DocumentTypes
[2014-04-15 10:43:10] F:\CMS\CMSModules\Ecommerce\Pages\Tools\Products\Products_Frameset.aspx.cs
[2014-04-15 10:43:10] CMS_PROJ\CMS\CMSModules\Ecommerce\Pages\Tools
[2014-04-15 10:43:10] CMS_PROJ\CMS\CMSModules\Ecommerce\Pages
[2014-04-15 10:43:10] CMS_PROJ\CMS\CMSModules\Ecommerce
[2014-04-15 10:43:10] CMS_PROJ\CMS\CMSModules\Newsletters\Tools\Newsletters
[2014-04-15 10:43:10] F:\CMS\CMSModules\Newsletters\Tools\Newsletters\Newsletter_Issue_List.aspx
[2014-04-15 10:43:10] F:\CMS\CMSModules\Newsletters\Tools\Newsletters\Newsletter_Issue_List.aspx.cs
[2014-04-15 10:43:10] F:\CMS\CMSModules\Newsletters\Tools\Newsletters\Newsletter_Issue_Send.aspx.cs
[2014-04-15 10:43:10] CMS_PROJ\CMS\CMSModules\Newsletters\Tools
[2014-04-15 10:43:10] CMS_PROJ\CMS\CMSModules\Newsletters
[2014-04-15 10:43:10] F:\CMS\CMSModules\OnlineMarketing\Controls\UI\ContentPersonalizationVariant\Edit.ascx.cs
[2014-04-15 10:43:10] CMS_PROJ\CMS\CMSModules\OnlineMarketing\Controls\UI
[2014-04-15 10:43:10] CMS_PROJ\CMS\CMSModules\OnlineMarketing\Controls
[2014-04-15 10:43:10] CMS_PROJ\CMS\CMSModules\OnlineMarketing
[2014-04-15 10:43:10] CMS_PROJ\CMS\CMSModules\PortalEngine\Controls\Layout
[2014-04-15 10:43:10] F:\CMS\CMSModules\PortalEngine\Controls\Layout\PageTemplateFlatSelector.ascx.cs
[2014-04-15 10:43:10] F:\CMS\CMSModules\PortalEngine\Controls\Layout\PageTemplateTree.ascx.cs
[2014-04-15 10:43:10] CMS_PROJ\CMS\CMSModules\PortalEngine\Controls\OnSiteEdit
[2014-04-15 10:43:10] F:\CMS\CMSModules\PortalEngine\Controls\OnSiteEdit\EditToolbar.ascx
[2014-04-15 10:43:10] F:\CMS\CMSModules\PortalEngine\Controls\OnSiteEdit\EditToolbar.ascx.cs
[2014-04-15 10:43:10] CMS_PROJ\CMS\CMSModules\PortalEngine\Controls
[2014-04-15 10:43:10] CMS_PROJ\CMS\CMSModules\PortalEngine\FormControls\PageTemplates
[2014-04-15 10:43:10] F:\CMS\CMSModules\PortalEngine\FormControls\PageTemplates\LevelTree.ascx.cs
[2014-04-15 10:43:10] CMS_PROJ\CMS\CMSModules\PortalEngine\FormControls
[2014-04-15 10:43:10] CMS_PROJ\CMS\CMSModules\PortalEngine
[2014-04-15 10:43:10] CMS_PROJ\CMS\CMSModules\ProjectManagement\Controls\LiveControls
[2014-04-15 10:43:10] F:\CMS\CMSModules\ProjectManagement\Controls\LiveControls\ProjectListEdit.ascx
[2014-04-15 10:43:10] F:\CMS\CMSModules\ProjectManagement\Controls\LiveControls\ProjectListEdit.ascx.cs
[2014-04-15 10:43:10] F:\CMS\CMSModules\ProjectManagement\Controls\UI\Project\Edit.ascx
[2014-04-15 10:43:10] F:\CMS\CMSModules\ProjectManagement\Controls\UI\Project\Security.ascx.cs
[2014-04-15 10:43:10] CMS_PROJ\CMS\CMSModules\ProjectManagement\Controls\UI
[2014-04-15 10:43:10] CMS_PROJ\CMS\CMSModules\ProjectManagement\Controls
[2014-04-15 10:43:10] CMS_PROJ\CMS\CMSModules\ProjectManagement
[2014-04-15 10:43:10] CMS_PROJ\CMS\CMSModules\Scheduler\Pages
[2014-04-15 10:43:10] F:\CMS\CMSModules\Scheduler\Pages\Tab_Tasks.aspx.cs
[2014-04-15 10:43:10] CMS_PROJ\CMS\CMSModules\Scheduler
[2014-04-15 10:43:10] CMS_PROJ\CMS\CMSModules\Settings\Pages
[2014-04-15 10:43:10] F:\CMS\CMSModules\Settings\Pages\Categories.aspx
[2014-04-15 10:43:10] CMS_PROJ\CMS\CMSModules\Settings
[2014-04-15 10:43:10] CMS_PROJ\CMS\CMSModules\SocialMarketing\FormControls
[2014-04-15 10:43:10] F:\CMS\CMSModules\SocialMarketing\FormControls\FacebookPageAccessToken.ascx
[2014-04-15 10:43:10] CMS_PROJ\CMS\CMSModules\SocialMarketing\Pages
[2014-04-15 10:43:10] F:\CMS\CMSModules\SocialMarketing\Pages\InsightsMenu.aspx
[2014-04-15 10:43:10] F:\CMS\CMSModules\SocialMarketing\Pages\InsightsMenu.aspx.cs
[2014-04-15 10:43:10] CMS_PROJ\CMS\CMSModules\SocialMarketing
[2014-04-15 10:43:10] CMS_PROJ\CMS\CMSModules
[2014-04-15 10:43:10] CMS_PROJ\CMS\CMSResources
[2014-04-15 10:43:10] F:\CMS\CMSResources\Hotfix.resx
[2014-04-15 10:43:10] CMS_PROJ\CMS\CMSScripts\CMSModules\CMS
[2014-04-15 10:43:10] F:\CMS\CMSScripts\CMSModules\CMS\AppList.js
[2014-04-15 10:43:10] CMS_PROJ\CMS\CMSScripts\CMSModules
[2014-04-15 10:43:10] CMS_PROJ\CMS\CMSScripts\Controls
[2014-04-15 10:43:10] F:\CMS\CMSScripts\Controls\MessagesPlaceHolder.js
[2014-04-15 10:43:10] CMS_PROJ\CMS\CMSScripts\Dialogs
[2014-04-15 10:43:10] F:\CMS\CMSScripts\Dialogs\RelationshipEditor.js
[2014-04-15 10:43:10] CMS_PROJ\CMS\CMSScripts
[2014-04-15 10:43:10] F:\CMS\CMSScripts\cmsedit.js
[2014-04-15 10:43:10] CMS_PROJ\CMS\CMSWebParts\Ecommerce\Checkout\Forms
[2014-04-15 10:43:10] F:\CMS\CMSWebParts\Ecommerce\Checkout\Forms\CustomerAddress.ascx.cs
[2014-04-15 10:43:10] CMS_PROJ\CMS\CMSWebParts\Ecommerce\Checkout
[2014-04-15 10:43:10] CMS_PROJ\CMS\CMSWebParts\Ecommerce
[2014-04-15 10:43:10] CMS_PROJ\CMS\CMSWebParts
[2014-04-15 10:43:10] CMS_PROJ\CMS\Controllers\CorporateSite
[2014-04-15 10:43:10] F:\CMS\Controllers\CorporateSite\NewsController.cs
[2014-04-15 10:43:10] CMS_PROJ\CMS\Controllers
[2014-04-15 10:43:10] CMS_PROJ\CMS
[2014-04-15 10:43:10] CMS_PROJ
[2014-04-15 10:43:10] DLLs\Net40
[2014-04-15 10:43:10] F:\CMS\bin\CMS.AmazonStorage.dll
[2014-04-15 10:43:10] F:\CMS\bin\CMS.Automation.dll
[2014-04-15 10:43:10] F:\CMS\bin\CMS.AzureStorage.dll
[2014-04-15 10:43:10] F:\CMS\bin\CMS.BannerManagement.dll
[2014-04-15 10:43:10] F:\CMS\bin\CMS.Base.dll
[2014-04-15 10:43:10] F:\CMS\bin\CMS.Blogs.dll
[2014-04-15 10:43:10] F:\CMS\bin\CMS.Chat.dll
[2014-04-15 10:43:10] F:\CMS\bin\CMS.CKEditor.dll
[2014-04-15 10:43:10] F:\CMS\bin\CMS.CMSSiteMapProvider.dll
[2014-04-15 10:43:10] F:\CMS\bin\CMS.Community.dll
[2014-04-15 10:43:10] F:\CMS\bin\CMS.Controls.dll
[2014-04-15 10:43:10] F:\CMS\bin\CMS.Controls.XmlSerializers.dll
[2014-04-15 10:43:10] F:\CMS\bin\CMS.Core.dll
[2014-04-15 10:43:10] F:\CMS\bin\CMS.CustomTables.dll
[2014-04-15 10:43:10] F:\CMS\bin\CMS.DataCom.dll
[2014-04-15 10:43:10] F:\CMS\bin\CMS.DataEngine.dll
[2014-04-15 10:43:10] F:\CMS\bin\CMS.DataProviderSQL.dll
[2014-04-15 10:43:10] F:\CMS\bin\CMS.DocumentEngine.dll
[2014-04-15 10:43:10] F:\CMS\bin\CMS.DocumentWebServices.dll
[2014-04-15 10:43:10] F:\CMS\bin\CMS.Ecommerce.dll
[2014-04-15 10:43:10] F:\CMS\bin\CMS.EcommerceProvider.dll
[2014-04-15 10:43:10] F:\CMS\bin\CMS.EmailEngine.dll
[2014-04-15 10:43:10] F:\CMS\bin\CMS.EventLog.dll
[2014-04-15 10:43:10] F:\CMS\bin\CMS.EventManager.dll
[2014-04-15 10:43:10] F:\CMS\bin\CMS.ExtendedControls.dll
[2014-04-15 10:43:10] F:\CMS\bin\CMS.FileSystemStorage.dll
[2014-04-15 10:43:10] F:\CMS\bin\CMS.FormControls.dll
[2014-04-15 10:43:10] F:\CMS\bin\CMS.FormEngine.dll
[2014-04-15 10:43:10] F:\CMS\bin\CMS.Forums.dll
[2014-04-15 10:43:10] F:\CMS\bin\CMS.Globalization.dll
[2014-04-15 10:43:10] F:\CMS\bin\CMS.HealthMonitoring.dll
[2014-04-15 10:43:10] F:\CMS\bin\CMS.Helpers.dll
[2014-04-15 10:43:10] F:\CMS\bin\CMS.ImportExport.dll
[2014-04-15 10:43:10] F:\CMS\bin\CMS.IO.dll
[2014-04-15 10:43:10] F:\CMS\bin\CMS.LicenseProvider.dll
[2014-04-15 10:43:10] F:\CMS\bin\CMS.LicenseProvider.XmlSerializers.dll
[2014-04-15 10:43:10] F:\CMS\bin\CMS.Localization.dll
[2014-04-15 10:43:10] F:\CMS\bin\CMS.MacroEngine.dll
[2014-04-15 10:43:10] F:\CMS\bin\CMS.MediaLibrary.dll
[2014-04-15 10:43:10] F:\CMS\bin\CMS.Membership.dll
[2014-04-15 10:43:10] F:\CMS\bin\CMS.MembershipProvider.dll
[2014-04-15 10:43:10] F:\CMS\bin\CMS.MessageBoards.dll
[2014-04-15 10:43:10] F:\CMS\bin\CMS.Messaging.dll
[2014-04-15 10:43:10] F:\CMS\bin\CMS.MetaWeblogProvider.dll
[2014-04-15 10:43:10] F:\CMS\bin\CMS.Modules.dll
[2014-04-15 10:43:10] F:\CMS\bin\CMS.Mvc.dll
[2014-04-15 10:43:10] F:\CMS\bin\CMS.Newsletters.dll
[2014-04-15 10:43:10] F:\CMS\bin\CMS.Notifications.dll
[2014-04-15 10:43:10] F:\CMS\bin\CMS.OnlineForms.dll
[2014-04-15 10:43:10] F:\CMS\bin\CMS.OnlineMarketing.dll
[2014-04-15 10:43:10] F:\CMS\bin\CMS.OutputFilter.dll
[2014-04-15 10:43:10] F:\CMS\bin\CMS.Personas.dll
[2014-04-15 10:43:10] F:\CMS\bin\CMS.Polls.dll
[2014-04-15 10:43:10] F:\CMS\bin\CMS.PortalControls.dll
[2014-04-15 10:43:10] F:\CMS\bin\CMS.PortalEngine.dll
[2014-04-15 10:43:10] F:\CMS\bin\CMS.ProjectManagement.dll
[2014-04-15 10:43:10] F:\CMS\bin\CMS.Protection.dll
[2014-04-15 10:43:10] F:\CMS\bin\CMS.Relationships.dll
[2014-04-15 10:43:10] F:\CMS\bin\CMS.Reporting.dll
[2014-04-15 10:43:10] F:\CMS\bin\CMS.SalesForce.dll
[2014-04-15 10:43:10] F:\CMS\bin\CMS.Scheduler.dll
[2014-04-15 10:43:10] F:\CMS\bin\CMS.Search.dll
[2014-04-15 10:43:10] F:\CMS\bin\CMS.Search.Lucene3.dll
[2014-04-15 10:43:10] F:\CMS\bin\CMS.Search.TextExtractors.dll
[2014-04-15 10:43:10] F:\CMS\bin\CMS.SearchProviderSQL.dll
[2014-04-15 10:43:10] F:\CMS\bin\CMS.SharePoint.dll
[2014-04-15 10:43:10] F:\CMS\bin\CMS.SiteProvider.dll
[2014-04-15 10:43:10] F:\CMS\bin\CMS.skmMenuControl.dll
[2014-04-15 10:43:10] F:\CMS\bin\CMS.SocialMarketing.dll
[2014-04-15 10:43:10] F:\CMS\bin\CMS.SocialMedia.dll
[2014-04-15 10:43:10] F:\CMS\bin\CMS.StrandsRecommender.dll
[2014-04-15 10:43:10] F:\CMS\bin\CMS.Synchronization.dll
[2014-04-15 10:43:10] F:\CMS\bin\CMS.Synchronization.WSE3.dll
[2014-04-15 10:43:10] F:\CMS\bin\CMS.SynchronizationEngine.dll
[2014-04-15 10:43:10] F:\CMS\bin\CMS.Taxonomy.dll
[2014-04-15 10:43:10] F:\CMS\bin\CMS.Tests.dll
[2014-04-15 10:43:10] F:\CMS\bin\CMS.TranslationServices.dll
[2014-04-15 10:43:10] F:\CMS\bin\CMS.UIControls.dll
[2014-04-15 10:43:10] F:\CMS\bin\CMS.URLRewritingEngine.dll
[2014-04-15 10:43:10] F:\CMS\bin\CMS.VirtualPathProvider.dll
[2014-04-15 10:43:10] F:\CMS\bin\CMS.WebAnalytics.dll
[2014-04-15 10:43:10] F:\CMS\bin\CMS.WebDAV.dll
[2014-04-15 10:43:10] F:\CMS\bin\CMS.WebFarmSync.dll
[2014-04-15 10:43:10] F:\CMS\bin\CMS.WebServices.dll
[2014-04-15 10:43:10] F:\CMS\bin\CMS.WIFIntegration.dll
[2014-04-15 10:43:10] F:\CMS\bin\CMS.WinServiceEngine.dll
[2014-04-15 10:43:10] F:\CMS\bin\CMS.WorkflowEngine.dll
[2014-04-15 10:43:10] F:\CMS\bin\HealthMonitoringService.exe
[2014-04-15 10:43:10] F:\CMS\bin\SchedulerService.exe
[2014-04-15 10:43:10] DLLs\Net40
[2014-04-15 10:43:10] F:\Lib\CMS.AmazonStorage.dll
[2014-04-15 10:43:10] F:\Lib\CMS.Automation.dll
[2014-04-15 10:43:10] F:\Lib\CMS.AzureStorage.dll
[2014-04-15 10:43:10] F:\Lib\CMS.BannerManagement.dll
[2014-04-15 10:43:10] F:\Lib\CMS.Base.dll
[2014-04-15 10:43:10] F:\Lib\CMS.Blogs.dll
[2014-04-15 10:43:10] F:\Lib\CMS.Chat.dll
[2014-04-15 10:43:10] F:\Lib\CMS.CKEditor.dll
[2014-04-15 10:43:10] F:\Lib\CMS.CMSSiteMapProvider.dll
[2014-04-15 10:43:10] F:\Lib\CMS.Community.dll
[2014-04-15 10:43:10] F:\Lib\CMS.Controls.dll
[2014-04-15 10:43:10] F:\Lib\CMS.Controls.XmlSerializers.dll
[2014-04-15 10:43:10] F:\Lib\CMS.Core.dll
[2014-04-15 10:43:10] F:\Lib\CMS.CustomTables.dll
[2014-04-15 10:43:10] F:\Lib\CMS.DataCom.dll
[2014-04-15 10:43:10] F:\Lib\CMS.DataEngine.dll
[2014-04-15 10:43:10] F:\Lib\CMS.DataProviderSQL.dll
[2014-04-15 10:43:10] F:\Lib\CMS.DocumentEngine.dll
[2014-04-15 10:43:10] F:\Lib\CMS.DocumentWebServices.dll
[2014-04-15 10:43:10] F:\Lib\CMS.Ecommerce.dll
[2014-04-15 10:43:10] F:\Lib\CMS.EcommerceProvider.dll
[2014-04-15 10:43:10] F:\Lib\CMS.EmailEngine.dll
[2014-04-15 10:43:10] F:\Lib\CMS.EventLog.dll
[2014-04-15 10:43:10] F:\Lib\CMS.EventManager.dll
[2014-04-15 10:43:10] F:\Lib\CMS.ExtendedControls.dll
[2014-04-15 10:43:10] F:\Lib\CMS.FileSystemStorage.dll
[2014-04-15 10:43:10] F:\Lib\CMS.FormControls.dll
[2014-04-15 10:43:10] F:\Lib\CMS.FormEngine.dll
[2014-04-15 10:43:10] F:\Lib\CMS.Forums.dll
[2014-04-15 10:43:10] F:\Lib\CMS.Globalization.dll
[2014-04-15 10:43:10] F:\Lib\CMS.HealthMonitoring.dll
[2014-04-15 10:43:10] F:\Lib\CMS.Helpers.dll
[2014-04-15 10:43:10] F:\Lib\CMS.ImportExport.dll
[2014-04-15 10:43:10] F:\Lib\CMS.IO.dll
[2014-04-15 10:43:10] F:\Lib\CMS.LicenseProvider.dll
[2014-04-15 10:43:10] F:\Lib\CMS.LicenseProvider.XmlSerializers.dll
[2014-04-15 10:43:11] F:\Lib\CMS.Localization.dll
[2014-04-15 10:43:11] F:\Lib\CMS.MacroEngine.dll
[2014-04-15 10:43:11] F:\Lib\CMS.MediaLibrary.dll
[2014-04-15 10:43:11] F:\Lib\CMS.Membership.dll
[2014-04-15 10:43:11] F:\Lib\CMS.MembershipProvider.dll
[2014-04-15 10:43:11] F:\Lib\CMS.MessageBoards.dll
[2014-04-15 10:43:11] F:\Lib\CMS.Messaging.dll
[2014-04-15 10:43:11] F:\Lib\CMS.MetaWeblogProvider.dll
[2014-04-15 10:43:11] F:\Lib\CMS.Modules.dll
[2014-04-15 10:43:11] F:\Lib\CMS.Mvc.dll
[2014-04-15 10:43:11] F:\Lib\CMS.Newsletters.dll
[2014-04-15 10:43:11] F:\Lib\CMS.Notifications.dll
[2014-04-15 10:43:11] F:\Lib\CMS.OnlineForms.dll
[2014-04-15 10:43:11] F:\Lib\CMS.OnlineMarketing.dll
[2014-04-15 10:43:11] F:\Lib\CMS.OutputFilter.dll
[2014-04-15 10:43:11] F:\Lib\CMS.Personas.dll
[2014-04-15 10:43:11] F:\Lib\CMS.Polls.dll
[2014-04-15 10:43:11] F:\Lib\CMS.PortalControls.dll
[2014-04-15 10:43:11] F:\Lib\CMS.PortalEngine.dll
[2014-04-15 10:43:11] F:\Lib\CMS.ProjectManagement.dll
[2014-04-15 10:43:11] F:\Lib\CMS.Protection.dll
[2014-04-15 10:43:11] F:\Lib\CMS.Relationships.dll
[2014-04-15 10:43:11] F:\Lib\CMS.Reporting.dll
[2014-04-15 10:43:11] F:\Lib\CMS.SalesForce.dll
[2014-04-15 10:43:11] F:\Lib\CMS.Scheduler.dll
[2014-04-15 10:43:11] F:\Lib\CMS.Search.dll
[2014-04-15 10:43:11] F:\Lib\CMS.Search.Lucene3.dll
[2014-04-15 10:43:11] F:\Lib\CMS.Search.TextExtractors.dll
[2014-04-15 10:43:11] F:\Lib\CMS.SearchProviderSQL.dll
[2014-04-15 10:43:11] F:\Lib\CMS.SharePoint.dll
[2014-04-15 10:43:11] F:\Lib\CMS.SiteProvider.dll
[2014-04-15 10:43:11] F:\Lib\CMS.skmMenuControl.dll
[2014-04-15 10:43:11] F:\Lib\CMS.SocialMarketing.dll
[2014-04-15 10:43:11] F:\Lib\CMS.SocialMedia.dll
[2014-04-15 10:43:11] F:\Lib\CMS.StrandsRecommender.dll
[2014-04-15 10:43:11] F:\Lib\CMS.Synchronization.dll
[2014-04-15 10:43:11] F:\Lib\CMS.Synchronization.WSE3.dll
[2014-04-15 10:43:11] F:\Lib\CMS.SynchronizationEngine.dll
[2014-04-15 10:43:11] F:\Lib\CMS.Taxonomy.dll
[2014-04-15 10:43:11] F:\Lib\CMS.Tests.dll
[2014-04-15 10:43:11] F:\Lib\CMS.TranslationServices.dll
[2014-04-15 10:43:11] F:\Lib\CMS.UIControls.dll
[2014-04-15 10:43:11] F:\Lib\CMS.URLRewritingEngine.dll
[2014-04-15 10:43:11] F:\Lib\CMS.VirtualPathProvider.dll
[2014-04-15 10:43:11] F:\Lib\CMS.WebAnalytics.dll
[2014-04-15 10:43:11] F:\Lib\CMS.WebDAV.dll
[2014-04-15 10:43:11] F:\Lib\CMS.WebFarmSync.dll
[2014-04-15 10:43:11] F:\Lib\CMS.WebServices.dll
[2014-04-15 10:43:11] F:\Lib\CMS.WIFIntegration.dll
[2014-04-15 10:43:11] F:\Lib\CMS.WinServiceEngine.dll
[2014-04-15 10:43:11] F:\Lib\CMS.WorkflowEngine.dll
[2014-04-15 10:43:11] F:\Lib\HealthMonitoringService.exe
[2014-04-15 10:43:11] F:\Lib\SchedulerService.exe
[2014-04-15 10:43:11] DLLs\Net40\Lib
[2014-04-15 10:43:11] F:\CMS\bin\ITHit.WebDAV.Server.dll
[2014-04-15 10:43:11] F:\CMS\bin\ITHit.WebDAV.Server.xml
[2014-04-15 10:43:11] DLLs\Net40\Lib
[2014-04-15 10:43:11] F:\Lib\ITHit.WebDAV.Server.dll
[2014-04-15 10:43:11] F:\Lib\ITHit.WebDAV.Server.xml
[2014-04-15 10:43:11] DLLs\Net40\ThirdParty
[2014-04-15 10:43:11] F:\CMS\bin\FiftyOne.Foundation.dll
[2014-04-15 10:43:11] F:\CMS\bin\Kentico.Google.Apis.dll
[2014-04-15 10:43:11] F:\CMS\bin\Lucene.Net.v3.dll
[2014-04-15 10:43:11] F:\CMS\bin\Lucene.Net.WordNet.SynExpand.dll
[2014-04-15 10:43:11] F:\CMS\bin\PDFClown.dll
[2014-04-15 10:43:11] F:\CMS\bin\ThoughtWorks.QRCode.dll
[2014-04-15 10:43:11] DLLs\Net40\ThirdParty
[2014-04-15 10:43:11] F:\Lib\FiftyOne.Foundation.dll
[2014-04-15 10:43:11] F:\Lib\Kentico.Google.Apis.dll
[2014-04-15 10:43:11] F:\Lib\Lucene.Net.v3.dll
[2014-04-15 10:43:11] F:\Lib\Lucene.Net.WordNet.SynExpand.dll
[2014-04-15 10:43:11] F:\Lib\PDFClown.dll
[2014-04-15 10:43:11] F:\Lib\ThoughtWorks.QRCode.dll
[2014-04-15 10:43:11] Running SQL script (Hotfix_separated.sql)
[2014-04-15 10:43:11] SQL script applied.
[2014-04-15 10:43:11] Running SQL script (Hotfix_default.sql)
[2014-04-15 10:43:12] SQL script applied.
[2014-04-15 10:43:12] Copying files...
[2014-04-15 10:43:12] \Bin
[2014-04-15 10:43:12] F:\KenticoCMS\8.0\Bin\CMS.Automation.dll
[2014-04-15 10:43:12] F:\KenticoCMS\8.0\Bin\CMS.BannerManagement.dll
[2014-04-15 10:43:12] F:\KenticoCMS\8.0\Bin\CMS.Base.dll
[2014-04-15 10:43:12] F:\KenticoCMS\8.0\Bin\CMS.Blogs.dll
[2014-04-15 10:43:12] F:\KenticoCMS\8.0\Bin\CMS.Chat.dll
[2014-04-15 10:43:12] F:\KenticoCMS\8.0\Bin\CMS.CKEditor.dll
[2014-04-15 10:43:12] F:\KenticoCMS\8.0\Bin\CMS.Community.dll
[2014-04-15 10:43:12] F:\KenticoCMS\8.0\Bin\CMS.Controls.dll
[2014-04-15 10:43:12] F:\KenticoCMS\8.0\Bin\CMS.Controls.XmlSerializers.dll
[2014-04-15 10:43:12] F:\KenticoCMS\8.0\Bin\CMS.Core.dll
[2014-04-15 10:43:12] F:\KenticoCMS\8.0\Bin\CMS.CustomTables.dll
[2014-04-15 10:43:12] F:\KenticoCMS\8.0\Bin\CMS.DataEngine.dll
[2014-04-15 10:43:12] F:\KenticoCMS\8.0\Bin\CMS.DataProviderSQL.dll
[2014-04-15 10:43:12] F:\KenticoCMS\8.0\Bin\CMS.DocumentEngine.dll
[2014-04-15 10:43:12] F:\KenticoCMS\8.0\Bin\CMS.Ecommerce.dll
[2014-04-15 10:43:12] F:\KenticoCMS\8.0\Bin\CMS.EcommerceProvider.dll
[2014-04-15 10:43:12] F:\KenticoCMS\8.0\Bin\CMS.EmailEngine.dll
[2014-04-15 10:43:12] F:\KenticoCMS\8.0\Bin\CMS.EventLog.dll
[2014-04-15 10:43:12] F:\KenticoCMS\8.0\Bin\CMS.EventManager.dll
[2014-04-15 10:43:12] F:\KenticoCMS\8.0\Bin\CMS.ExtendedControls.dll
[2014-04-15 10:43:12] F:\KenticoCMS\8.0\Bin\CMS.FileSystemStorage.dll
[2014-04-15 10:43:12] F:\KenticoCMS\8.0\Bin\CMS.FormControls.dll
[2014-04-15 10:43:12] F:\KenticoCMS\8.0\Bin\CMS.FormEngine.dll
[2014-04-15 10:43:12] F:\KenticoCMS\8.0\Bin\CMS.Forums.dll
[2014-04-15 10:43:12] F:\KenticoCMS\8.0\Bin\CMS.Globalization.dll
[2014-04-15 10:43:12] F:\KenticoCMS\8.0\Bin\CMS.HealthMonitoring.dll
[2014-04-15 10:43:12] F:\KenticoCMS\8.0\Bin\CMS.Helpers.dll
[2014-04-15 10:43:12] F:\KenticoCMS\8.0\Bin\CMS.ImportExport.dll
[2014-04-15 10:43:12] F:\KenticoCMS\8.0\Bin\CMS.IO.dll
[2014-04-15 10:43:12] F:\KenticoCMS\8.0\Bin\CMS.LicenseProvider.dll
[2014-04-15 10:43:12] F:\KenticoCMS\8.0\Bin\CMS.LicenseProvider.XmlSerializers.dll
[2014-04-15 10:43:12] F:\KenticoCMS\8.0\Bin\CMS.Localization.dll
[2014-04-15 10:43:12] F:\KenticoCMS\8.0\Bin\CMS.MacroEngine.dll
[2014-04-15 10:43:12] F:\KenticoCMS\8.0\Bin\CMS.MediaLibrary.dll
[2014-04-15 10:43:12] F:\KenticoCMS\8.0\Bin\CMS.Membership.dll
[2014-04-15 10:43:12] F:\KenticoCMS\8.0\Bin\CMS.MessageBoards.dll
[2014-04-15 10:43:12] F:\KenticoCMS\8.0\Bin\CMS.Messaging.dll
[2014-04-15 10:43:12] F:\KenticoCMS\8.0\Bin\CMS.Modules.dll
[2014-04-15 10:43:12] F:\KenticoCMS\8.0\Bin\CMS.Mvc.dll
[2014-04-15 10:43:12] F:\KenticoCMS\8.0\Bin\CMS.Newsletters.dll
[2014-04-15 10:43:12] F:\KenticoCMS\8.0\Bin\CMS.Notifications.dll
[2014-04-15 10:43:12] F:\KenticoCMS\8.0\Bin\CMS.OnlineForms.dll
[2014-04-15 10:43:12] F:\KenticoCMS\8.0\Bin\CMS.OnlineMarketing.dll
[2014-04-15 10:43:12] F:\KenticoCMS\8.0\Bin\CMS.OutputFilter.dll
[2014-04-15 10:43:12] F:\KenticoCMS\8.0\Bin\CMS.Polls.dll
[2014-04-15 10:43:12] F:\KenticoCMS\8.0\Bin\CMS.PortalControls.dll
[2014-04-15 10:43:12] F:\KenticoCMS\8.0\Bin\CMS.PortalEngine.dll
[2014-04-15 10:43:12] F:\KenticoCMS\8.0\Bin\CMS.ProjectManagement.dll
[2014-04-15 10:43:12] F:\KenticoCMS\8.0\Bin\CMS.Protection.dll
[2014-04-15 10:43:12] F:\KenticoCMS\8.0\Bin\CMS.Relationships.dll
[2014-04-15 10:43:12] F:\KenticoCMS\8.0\Bin\CMS.Reporting.dll
[2014-04-15 10:43:12] F:\KenticoCMS\8.0\Bin\CMS.Scheduler.dll
[2014-04-15 10:43:12] F:\KenticoCMS\8.0\Bin\CMS.Search.dll
[2014-04-15 10:43:12] F:\KenticoCMS\8.0\Bin\CMS.Search.Lucene3.dll
[2014-04-15 10:43:12] F:\KenticoCMS\8.0\Bin\CMS.SiteProvider.dll
[2014-04-15 10:43:12] F:\KenticoCMS\8.0\Bin\CMS.skmMenuControl.dll
[2014-04-15 10:43:12] F:\KenticoCMS\8.0\Bin\CMS.SocialMarketing.dll
[2014-04-15 10:43:12] F:\KenticoCMS\8.0\Bin\CMS.Synchronization.dll
[2014-04-15 10:43:12] F:\KenticoCMS\8.0\Bin\CMS.SynchronizationEngine.dll
[2014-04-15 10:43:12] F:\KenticoCMS\8.0\Bin\CMS.Taxonomy.dll
[2014-04-15 10:43:12] F:\KenticoCMS\8.0\Bin\CMS.UIControls.dll
[2014-04-15 10:43:12] F:\KenticoCMS\8.0\Bin\CMS.URLRewritingEngine.dll
[2014-04-15 10:43:12] F:\KenticoCMS\8.0\Bin\CMS.WebAnalytics.dll
[2014-04-15 10:43:12] F:\KenticoCMS\8.0\Bin\CMS.WebFarmSync.dll
[2014-04-15 10:43:12] F:\KenticoCMS\8.0\Bin\CMS.WebServices.dll
[2014-04-15 10:43:12] F:\KenticoCMS\8.0\Bin\CMS.WinServiceEngine.dll
[2014-04-15 10:43:12] F:\KenticoCMS\8.0\Bin\CMS.WorkflowEngine.dll
[2014-04-15 10:43:12] \Webinstaller\Modules\Bizforms\CMS\CMSModules\Bizforms\Tools
[2014-04-15 10:43:12] F:\KenticoCMS\8.0\Webinstaller\Modules\Bizforms\CMS\CMSModules\Bizforms\Tools\BizForm_Edit_Autoresponder.aspx.cs
[2014-04-15 10:43:12] F:\KenticoCMS\8.0\Webinstaller\Modules\Bizforms\CMS\CMSModules\Bizforms\Tools\BizForm_Edit_NotificationEmail.aspx.cs
[2014-04-15 10:43:12] \Webinstaller\Modules\Blogs\CMS\CMSModules\Blogs\Controls
[2014-04-15 10:43:12] F:\KenticoCMS\8.0\Webinstaller\Modules\Blogs\CMS\CMSModules\Blogs\Controls\CommentFilter.ascx.cs
[2014-04-15 10:43:12] \Webinstaller\Modules\Chat\CMS\CMSModules\Chat\CMSPages\Scripts
[2014-04-15 10:43:12] F:\KenticoCMS\8.0\Webinstaller\Modules\Chat\CMS\CMSModules\Chat\CMSPages\Scripts\ChatManager.js
[2014-04-15 10:43:12] \Webinstaller\Modules\Ecommerce\CMS\CMSModules\Ecommerce\Pages\Tools\Products
[2014-04-15 10:43:12] F:\KenticoCMS\8.0\Webinstaller\Modules\Ecommerce\CMS\CMSModules\Ecommerce\Pages\Tools\Products\Products_Frameset.aspx.cs
[2014-04-15 10:43:12] \Webinstaller\Modules\Ecommerce\CMS\CMSWebParts\Ecommerce\Checkout\Forms
[2014-04-15 10:43:12] F:\KenticoCMS\8.0\Webinstaller\Modules\Ecommerce\CMS\CMSWebParts\Ecommerce\Checkout\Forms\CustomerAddress.ascx.cs
[2014-04-15 10:43:13] \Webinstaller\Modules\Newsletters\CMS\CMSModules\Newsletters\Tools\Newsletters
[2014-04-15 10:43:13] F:\KenticoCMS\8.0\Webinstaller\Modules\Newsletters\CMS\CMSModules\Newsletters\Tools\Newsletters\Newsletter_Issue_List.aspx
[2014-04-15 10:43:13] F:\KenticoCMS\8.0\Webinstaller\Modules\Newsletters\CMS\CMSModules\Newsletters\Tools\Newsletters\Newsletter_Issue_List.aspx.cs
[2014-04-15 10:43:13] F:\KenticoCMS\8.0\Webinstaller\Modules\Newsletters\CMS\CMSModules\Newsletters\Tools\Newsletters\Newsletter_Issue_Send.aspx.cs
[2014-04-15 10:43:13] \Webinstaller\Modules\OnlineMarketing\CMS\CMSModules\ContactManagement\Controls\UI\Account
[2014-04-15 10:43:13] F:\KenticoCMS\8.0\Webinstaller\Modules\OnlineMarketing\CMS\CMSModules\ContactManagement\Controls\UI\Account\Subsidiaries.ascx.cs
[2014-04-15 10:43:13] \Webinstaller\Modules\OnlineMarketing\CMS\CMSModules\ContactManagement\Controls\UI\ContactGroup
[2014-04-15 10:43:13] F:\KenticoCMS\8.0\Webinstaller\Modules\OnlineMarketing\CMS\CMSModules\ContactManagement\Controls\UI\ContactGroup\Accounts.ascx.cs
[2014-04-15 10:43:13] F:\KenticoCMS\8.0\Webinstaller\Modules\OnlineMarketing\CMS\CMSModules\ContactManagement\Controls\UI\ContactGroup\Contacts.ascx.cs
[2014-04-15 10:43:13] \Webinstaller\Modules\OnlineMarketing\CMS\CMSModules\OnlineMarketing\Controls\UI\ContentPersonalizationVariant
[2014-04-15 10:43:13] F:\KenticoCMS\8.0\Webinstaller\Modules\OnlineMarketing\CMS\CMSModules\OnlineMarketing\Controls\UI\ContentPersonalizationVariant\Edit.ascx.cs
[2014-04-15 10:43:13] \Webinstaller\Modules\ProjectManagement\CMS\CMSModules\ProjectManagement\Controls\LiveControls
[2014-04-15 10:43:13] F:\KenticoCMS\8.0\Webinstaller\Modules\ProjectManagement\CMS\CMSModules\ProjectManagement\Controls\LiveControls\ProjectListEdit.ascx
[2014-04-15 10:43:13] F:\KenticoCMS\8.0\Webinstaller\Modules\ProjectManagement\CMS\CMSModules\ProjectManagement\Controls\LiveControls\ProjectListEdit.ascx.cs
[2014-04-15 10:43:13] \Webinstaller\Modules\ProjectManagement\CMS\CMSModules\ProjectManagement\Controls\UI\Project
[2014-04-15 10:43:13] F:\KenticoCMS\8.0\Webinstaller\Modules\ProjectManagement\CMS\CMSModules\ProjectManagement\Controls\UI\Project\Edit.ascx
[2014-04-15 10:43:13] F:\KenticoCMS\8.0\Webinstaller\Modules\ProjectManagement\CMS\CMSModules\ProjectManagement\Controls\UI\Project\Security.ascx.cs
[2014-04-15 10:43:13] \Webinstaller\Modules\SocialMarketing\CMS\CMSModules\SocialMarketing\FormControls
[2014-04-15 10:43:13] F:\KenticoCMS\8.0\Webinstaller\Modules\SocialMarketing\CMS\CMSModules\SocialMarketing\FormControls\FacebookPageAccessToken.ascx
[2014-04-15 10:43:13] \Webinstaller\Modules\SocialMarketing\CMS\CMSModules\SocialMarketing\Pages
[2014-04-15 10:43:13] F:\KenticoCMS\8.0\Webinstaller\Modules\SocialMarketing\CMS\CMSModules\SocialMarketing\Pages\InsightsMenu.aspx
[2014-04-15 10:43:13] F:\KenticoCMS\8.0\Webinstaller\Modules\SocialMarketing\CMS\CMSModules\SocialMarketing\Pages\InsightsMenu.aspx.cs
[2014-04-15 10:43:13] \Webinstaller\Modules\SocialMarketing\CMS\Old_App_Code\CMSModules\SocialMarketing
[2014-04-15 10:43:13] F:\KenticoCMS\8.0\Webinstaller\Modules\SocialMarketing\CMS\Old_App_Code\CMSModules\SocialMarketing\SocialMarketingUpgradeProcedure.cs
[2014-04-15 10:43:13] \Webinstaller\Modules\DLLs\Blogs\Azure45\Lib
[2014-04-15 10:43:13] F:\KenticoCMS\8.0\Webinstaller\Modules\DLLs\Blogs\Azure45\Lib\CMS.Blogs.dll
[2014-04-15 10:43:13] F:\KenticoCMS\8.0\Webinstaller\Modules\DLLs\Blogs\Azure45\Lib\CMS.MetaWeblogProvider.dll
[2014-04-15 10:43:13] \Webinstaller\Modules\DLLs\Blogs\Net40\Lib
[2014-04-15 10:43:13] F:\KenticoCMS\8.0\Webinstaller\Modules\DLLs\Blogs\Net40\Lib\CMS.Blogs.dll
[2014-04-15 10:43:13] F:\KenticoCMS\8.0\Webinstaller\Modules\DLLs\Blogs\Net40\Lib\CMS.MetaWeblogProvider.dll
[2014-04-15 10:43:13] \Webinstaller\Modules\DLLs\Blogs\Net45\Lib
[2014-04-15 10:43:13] F:\KenticoCMS\8.0\Webinstaller\Modules\DLLs\Blogs\Net45\Lib\CMS.Blogs.dll
[2014-04-15 10:43:13] F:\KenticoCMS\8.0\Webinstaller\Modules\DLLs\Blogs\Net45\Lib\CMS.MetaWeblogProvider.dll
[2014-04-15 10:43:13] \Webinstaller\Modules\DLLs\Chat\Azure45\Lib
[2014-04-15 10:43:13] F:\KenticoCMS\8.0\Webinstaller\Modules\DLLs\Chat\Azure45\Lib\CMS.Chat.dll
[2014-04-15 10:43:13] \Webinstaller\Modules\DLLs\Chat\Net40\Lib
[2014-04-15 10:43:13] F:\KenticoCMS\8.0\Webinstaller\Modules\DLLs\Chat\Net40\Lib\CMS.Chat.dll
[2014-04-15 10:43:13] \Webinstaller\Modules\DLLs\Chat\Net45\Lib
[2014-04-15 10:43:13] F:\KenticoCMS\8.0\Webinstaller\Modules\DLLs\Chat\Net45\Lib\CMS.Chat.dll
[2014-04-15 10:43:13] \Webinstaller\Modules\DLLs\Community\Azure45\Lib
[2014-04-15 10:43:13] F:\KenticoCMS\8.0\Webinstaller\Modules\DLLs\Community\Azure45\Lib\CMS.Community.dll
[2014-04-15 10:43:13] \Webinstaller\Modules\DLLs\Community\Net40\Lib
[2014-04-15 10:43:13] F:\KenticoCMS\8.0\Webinstaller\Modules\DLLs\Community\Net40\Lib\CMS.Community.dll
[2014-04-15 10:43:13] \Webinstaller\Modules\DLLs\Community\Net45\Lib
[2014-04-15 10:43:13] F:\KenticoCMS\8.0\Webinstaller\Modules\DLLs\Community\Net45\Lib\CMS.Community.dll
[2014-04-15 10:43:13] \Webinstaller\Modules\DLLs\Ecommerce\Azure45\Lib
[2014-04-15 10:43:13] F:\KenticoCMS\8.0\Webinstaller\Modules\DLLs\Ecommerce\Azure45\Lib\CMS.Ecommerce.dll
[2014-04-15 10:43:13] F:\KenticoCMS\8.0\Webinstaller\Modules\DLLs\Ecommerce\Azure45\Lib\CMS.EcommerceProvider.dll
[2014-04-15 10:43:13] \Webinstaller\Modules\DLLs\Ecommerce\Net40\Lib
[2014-04-15 10:43:13] F:\KenticoCMS\8.0\Webinstaller\Modules\DLLs\Ecommerce\Net40\Lib\CMS.Ecommerce.dll
[2014-04-15 10:43:13] F:\KenticoCMS\8.0\Webinstaller\Modules\DLLs\Ecommerce\Net40\Lib\CMS.EcommerceProvider.dll
[2014-04-15 10:43:13] \Webinstaller\Modules\DLLs\Ecommerce\Net45\Lib
[2014-04-15 10:43:13] F:\KenticoCMS\8.0\Webinstaller\Modules\DLLs\Ecommerce\Net45\Lib\CMS.Ecommerce.dll
[2014-04-15 10:43:13] F:\KenticoCMS\8.0\Webinstaller\Modules\DLLs\Ecommerce\Net45\Lib\CMS.EcommerceProvider.dll
[2014-04-15 10:43:13] \Webinstaller\Modules\DLLs\EventManager\Azure45\Lib
[2014-04-15 10:43:13] F:\KenticoCMS\8.0\Webinstaller\Modules\DLLs\EventManager\Azure45\Lib\CMS.EventManager.dll
[2014-04-15 10:43:13] \Webinstaller\Modules\DLLs\EventManager\Net40\Lib
[2014-04-15 10:43:13] F:\KenticoCMS\8.0\Webinstaller\Modules\DLLs\EventManager\Net40\Lib\CMS.EventManager.dll
[2014-04-15 10:43:13] \Webinstaller\Modules\DLLs\EventManager\Net45\Lib
[2014-04-15 10:43:13] F:\KenticoCMS\8.0\Webinstaller\Modules\DLLs\EventManager\Net45\Lib\CMS.EventManager.dll
[2014-04-15 10:43:13] \Webinstaller\Modules\DLLs\Forums\Azure45\Lib
[2014-04-15 10:43:13] F:\KenticoCMS\8.0\Webinstaller\Modules\DLLs\Forums\Azure45\Lib\CMS.Forums.dll
[2014-04-15 10:43:13] \Webinstaller\Modules\DLLs\Forums\Net40\Lib
[2014-04-15 10:43:13] F:\KenticoCMS\8.0\Webinstaller\Modules\DLLs\Forums\Net40\Lib\CMS.Forums.dll
[2014-04-15 10:43:13] \Webinstaller\Modules\DLLs\Forums\Net45\Lib
[2014-04-15 10:43:13] F:\KenticoCMS\8.0\Webinstaller\Modules\DLLs\Forums\Net45\Lib\CMS.Forums.dll
[2014-04-15 10:43:13] \Webinstaller\Modules\DLLs\MediaLibrary\Azure45\Lib
[2014-04-15 10:43:13] F:\KenticoCMS\8.0\Webinstaller\Modules\DLLs\MediaLibrary\Azure45\Lib\CMS.MediaLibrary.dll
[2014-04-15 10:43:13] \Webinstaller\Modules\DLLs\MediaLibrary\Net40\Lib
[2014-04-15 10:43:13] F:\KenticoCMS\8.0\Webinstaller\Modules\DLLs\MediaLibrary\Net40\Lib\CMS.MediaLibrary.dll
[2014-04-15 10:43:13] \Webinstaller\Modules\DLLs\MediaLibrary\Net45\Lib
[2014-04-15 10:43:13] F:\KenticoCMS\8.0\Webinstaller\Modules\DLLs\MediaLibrary\Net45\Lib\CMS.MediaLibrary.dll
[2014-04-15 10:43:13] \Webinstaller\Modules\DLLs\MessageBoards\Azure45\Lib
[2014-04-15 10:43:13] F:\KenticoCMS\8.0\Webinstaller\Modules\DLLs\MessageBoards\Azure45\Lib\CMS.MessageBoards.dll
[2014-04-15 10:43:13] \Webinstaller\Modules\DLLs\MessageBoards\Net40\Lib
[2014-04-15 10:43:13] F:\KenticoCMS\8.0\Webinstaller\Modules\DLLs\MessageBoards\Net40\Lib\CMS.MessageBoards.dll
[2014-04-15 10:43:13] \Webinstaller\Modules\DLLs\MessageBoards\Net45\Lib
[2014-04-15 10:43:13] F:\KenticoCMS\8.0\Webinstaller\Modules\DLLs\MessageBoards\Net45\Lib\CMS.MessageBoards.dll
[2014-04-15 10:43:13] \Webinstaller\Modules\DLLs\Messaging\Azure45\Lib
[2014-04-15 10:43:13] F:\KenticoCMS\8.0\Webinstaller\Modules\DLLs\Messaging\Azure45\Lib\CMS.Messaging.dll
[2014-04-15 10:43:13] \Webinstaller\Modules\DLLs\Messaging\Net40\Lib
[2014-04-15 10:43:13] F:\KenticoCMS\8.0\Webinstaller\Modules\DLLs\Messaging\Net40\Lib\CMS.Messaging.dll
[2014-04-15 10:43:13] \Webinstaller\Modules\DLLs\Messaging\Net45\Lib
[2014-04-15 10:43:13] F:\KenticoCMS\8.0\Webinstaller\Modules\DLLs\Messaging\Net45\Lib\CMS.Messaging.dll
[2014-04-15 10:43:13] \Webinstaller\Modules\DLLs\Newsletters\Azure45\Lib
[2014-04-15 10:43:13] F:\KenticoCMS\8.0\Webinstaller\Modules\DLLs\Newsletters\Azure45\Lib\CMS.Newsletters.dll
[2014-04-15 10:43:13] \Webinstaller\Modules\DLLs\Newsletters\Net40\Lib
[2014-04-15 10:43:13] F:\KenticoCMS\8.0\Webinstaller\Modules\DLLs\Newsletters\Net40\Lib\CMS.Newsletters.dll
[2014-04-15 10:43:13] \Webinstaller\Modules\DLLs\Newsletters\Net45\Lib
[2014-04-15 10:43:13] F:\KenticoCMS\8.0\Webinstaller\Modules\DLLs\Newsletters\Net45\Lib\CMS.Newsletters.dll
[2014-04-15 10:43:13] \Webinstaller\Modules\DLLs\Notifications\Azure45\Lib
[2014-04-15 10:43:13] F:\KenticoCMS\8.0\Webinstaller\Modules\DLLs\Notifications\Azure45\Lib\CMS.Notifications.dll
[2014-04-15 10:43:13] \Webinstaller\Modules\DLLs\Notifications\Net40\Lib
[2014-04-15 10:43:13] F:\KenticoCMS\8.0\Webinstaller\Modules\DLLs\Notifications\Net40\Lib\CMS.Notifications.dll
[2014-04-15 10:43:13] \Webinstaller\Modules\DLLs\Notifications\Net45\Lib
[2014-04-15 10:43:13] F:\KenticoCMS\8.0\Webinstaller\Modules\DLLs\Notifications\Net45\Lib\CMS.Notifications.dll
[2014-04-15 10:43:13] \Webinstaller\Modules\DLLs\OnlineMarketing\Azure45\Lib
[2014-04-15 10:43:14] F:\KenticoCMS\8.0\Webinstaller\Modules\DLLs\OnlineMarketing\Azure45\Lib\CMS.DataCom.dll
[2014-04-15 10:43:14] F:\KenticoCMS\8.0\Webinstaller\Modules\DLLs\OnlineMarketing\Azure45\Lib\CMS.OnlineMarketing.dll
[2014-04-15 10:43:14] F:\KenticoCMS\8.0\Webinstaller\Modules\DLLs\OnlineMarketing\Azure45\Lib\CMS.SalesForce.dll
[2014-04-15 10:43:14] \Webinstaller\Modules\DLLs\OnlineMarketing\Net40\Lib
[2014-04-15 10:43:14] F:\KenticoCMS\8.0\Webinstaller\Modules\DLLs\OnlineMarketing\Net40\Lib\CMS.DataCom.dll
[2014-04-15 10:43:14] F:\KenticoCMS\8.0\Webinstaller\Modules\DLLs\OnlineMarketing\Net40\Lib\CMS.OnlineMarketing.dll
[2014-04-15 10:43:14] F:\KenticoCMS\8.0\Webinstaller\Modules\DLLs\OnlineMarketing\Net40\Lib\CMS.SalesForce.dll
[2014-04-15 10:43:14] \Webinstaller\Modules\DLLs\OnlineMarketing\Net45\Lib
[2014-04-15 10:43:14] F:\KenticoCMS\8.0\Webinstaller\Modules\DLLs\OnlineMarketing\Net45\Lib\CMS.DataCom.dll
[2014-04-15 10:43:14] F:\KenticoCMS\8.0\Webinstaller\Modules\DLLs\OnlineMarketing\Net45\Lib\CMS.OnlineMarketing.dll
[2014-04-15 10:43:14] F:\KenticoCMS\8.0\Webinstaller\Modules\DLLs\OnlineMarketing\Net45\Lib\CMS.SalesForce.dll
[2014-04-15 10:43:14] \Webinstaller\Modules\DLLs\Personas\Azure45\Lib
[2014-04-15 10:43:14] F:\KenticoCMS\8.0\Webinstaller\Modules\DLLs\Personas\Azure45\Lib\CMS.Personas.dll
[2014-04-15 10:43:14] \Webinstaller\Modules\DLLs\Personas\Net40\Lib
[2014-04-15 10:43:14] F:\KenticoCMS\8.0\Webinstaller\Modules\DLLs\Personas\Net40\Lib\CMS.Personas.dll
[2014-04-15 10:43:14] \Webinstaller\Modules\DLLs\Personas\Net45\Lib
[2014-04-15 10:43:14] F:\KenticoCMS\8.0\Webinstaller\Modules\DLLs\Personas\Net45\Lib\CMS.Personas.dll
[2014-04-15 10:43:14] \Webinstaller\Modules\DLLs\Polls\Azure45\Lib
[2014-04-15 10:43:14] F:\KenticoCMS\8.0\Webinstaller\Modules\DLLs\Polls\Azure45\Lib\CMS.Polls.dll
[2014-04-15 10:43:14] \Webinstaller\Modules\DLLs\Polls\Net40\Lib
[2014-04-15 10:43:14] F:\KenticoCMS\8.0\Webinstaller\Modules\DLLs\Polls\Net40\Lib\CMS.Polls.dll
[2014-04-15 10:43:14] \Webinstaller\Modules\DLLs\Polls\Net45\Lib
[2014-04-15 10:43:14] F:\KenticoCMS\8.0\Webinstaller\Modules\DLLs\Polls\Net45\Lib\CMS.Polls.dll
[2014-04-15 10:43:14] \Webinstaller\Modules\DLLs\ProjectManagement\Azure45\Lib
[2014-04-15 10:43:14] F:\KenticoCMS\8.0\Webinstaller\Modules\DLLs\ProjectManagement\Azure45\Lib\CMS.ProjectManagement.dll
[2014-04-15 10:43:14] \Webinstaller\Modules\DLLs\ProjectManagement\Net40\Lib
[2014-04-15 10:43:14] F:\KenticoCMS\8.0\Webinstaller\Modules\DLLs\ProjectManagement\Net40\Lib\CMS.ProjectManagement.dll
[2014-04-15 10:43:14] \Webinstaller\Modules\DLLs\ProjectManagement\Net45\Lib
[2014-04-15 10:43:14] F:\KenticoCMS\8.0\Webinstaller\Modules\DLLs\ProjectManagement\Net45\Lib\CMS.ProjectManagement.dll
[2014-04-15 10:43:14] \Webinstaller\Modules\DLLs\Reporting\Azure45\Lib
[2014-04-15 10:43:14] F:\KenticoCMS\8.0\Webinstaller\Modules\DLLs\Reporting\Azure45\Lib\CMS.Reporting.dll
[2014-04-15 10:43:14] \Webinstaller\Modules\DLLs\Reporting\Net40\Lib
[2014-04-15 10:43:14] F:\KenticoCMS\8.0\Webinstaller\Modules\DLLs\Reporting\Net40\Lib\CMS.Reporting.dll
[2014-04-15 10:43:14] \Webinstaller\Modules\DLLs\Reporting\Net45\Lib
[2014-04-15 10:43:14] F:\KenticoCMS\8.0\Webinstaller\Modules\DLLs\Reporting\Net45\Lib\CMS.Reporting.dll
[2014-04-15 10:43:14] \Webinstaller\Modules\DLLs\Sharepoint\Azure45\Lib
[2014-04-15 10:43:14] F:\KenticoCMS\8.0\Webinstaller\Modules\DLLs\Sharepoint\Azure45\Lib\CMS.SharePoint.dll
[2014-04-15 10:43:14] \Webinstaller\Modules\DLLs\Sharepoint\Net40\Lib
[2014-04-15 10:43:14] F:\KenticoCMS\8.0\Webinstaller\Modules\DLLs\Sharepoint\Net40\Lib\CMS.SharePoint.dll
[2014-04-15 10:43:14] \Webinstaller\Modules\DLLs\Sharepoint\Net45\Lib
[2014-04-15 10:43:14] F:\KenticoCMS\8.0\Webinstaller\Modules\DLLs\Sharepoint\Net45\Lib\CMS.SharePoint.dll
[2014-04-15 10:43:14] \Webinstaller\Modules\DLLs\SocialMarketing\Azure45\Lib
[2014-04-15 10:43:14] F:\KenticoCMS\8.0\Webinstaller\Modules\DLLs\SocialMarketing\Azure45\Lib\CMS.SocialMarketing.dll
[2014-04-15 10:43:14] \Webinstaller\Modules\DLLs\SocialMarketing\Net40\Lib
[2014-04-15 10:43:14] F:\KenticoCMS\8.0\Webinstaller\Modules\DLLs\SocialMarketing\Net40\Lib\CMS.SocialMarketing.dll
[2014-04-15 10:43:14] \Webinstaller\Modules\DLLs\SocialMarketing\Net45\Lib
[2014-04-15 10:43:14] F:\KenticoCMS\8.0\Webinstaller\Modules\DLLs\SocialMarketing\Net45\Lib\CMS.SocialMarketing.dll
[2014-04-15 10:43:14] \Webinstaller\Modules\DLLs\StrandsRecommender\Azure45\Lib
[2014-04-15 10:43:14] F:\KenticoCMS\8.0\Webinstaller\Modules\DLLs\StrandsRecommender\Azure45\Lib\CMS.StrandsRecommender.dll
[2014-04-15 10:43:14] \Webinstaller\Modules\DLLs\StrandsRecommender\Net40\Lib
[2014-04-15 10:43:14] F:\KenticoCMS\8.0\Webinstaller\Modules\DLLs\StrandsRecommender\Net40\Lib\CMS.StrandsRecommender.dll
[2014-04-15 10:43:14] \Webinstaller\Modules\DLLs\StrandsRecommender\Net45\Lib
[2014-04-15 10:43:14] F:\KenticoCMS\8.0\Webinstaller\Modules\DLLs\StrandsRecommender\Net45\Lib\CMS.StrandsRecommender.dll
[2014-04-15 10:43:14] \Webinstaller\Modules\DLLs\WebDAV\Azure45\Lib
[2014-04-15 10:43:14] F:\KenticoCMS\8.0\Webinstaller\Modules\DLLs\WebDAV\Azure45\Lib\CMS.WebDAV.dll
[2014-04-15 10:43:14] \Webinstaller\Modules\DLLs\WebDAV\Net40\Lib
[2014-04-15 10:43:14] F:\KenticoCMS\8.0\Webinstaller\Modules\DLLs\WebDAV\Net40\Lib\CMS.WebDAV.dll
[2014-04-15 10:43:14] \Webinstaller\Modules\DLLs\WebDAV\Net45\Lib
[2014-04-15 10:43:14] F:\KenticoCMS\8.0\Webinstaller\Modules\DLLs\WebDAV\Net45\Lib\CMS.WebDAV.dll
[2014-04-15 10:43:14] \Webinstaller\Modules\DLLs\WIFIntegration\Azure45\Lib
[2014-04-15 10:43:14] F:\KenticoCMS\8.0\Webinstaller\Modules\DLLs\WIFIntegration\Azure45\Lib\CMS.WIFIntegration.dll
[2014-04-15 10:43:14] \Webinstaller\Modules\DLLs\WIFIntegration\Net40\Lib
[2014-04-15 10:43:14] F:\KenticoCMS\8.0\Webinstaller\Modules\DLLs\WIFIntegration\Net40\Lib\CMS.WIFIntegration.dll
[2014-04-15 10:43:14] \Webinstaller\Modules\DLLs\WIFIntegration\Net45\Lib
[2014-04-15 10:43:14] F:\KenticoCMS\8.0\Webinstaller\Modules\DLLs\WIFIntegration\Net45\Lib\CMS.WIFIntegration.dll
[2014-04-15 10:43:14] \Webinstaller\Modules\DLLs\WindowsServices\Azure45\Lib
[2014-04-15 10:43:14] F:\KenticoCMS\8.0\Webinstaller\Modules\DLLs\WindowsServices\Azure45\Lib\CMS.WinServiceEngine.dll
[2014-04-15 10:43:14] F:\KenticoCMS\8.0\Webinstaller\Modules\DLLs\WindowsServices\Azure45\Lib\HealthMonitoringService.exe
[2014-04-15 10:43:14] F:\KenticoCMS\8.0\Webinstaller\Modules\DLLs\WindowsServices\Azure45\Lib\SchedulerService.exe
[2014-04-15 10:43:14] \Webinstaller\Modules\DLLs\WindowsServices\Net40\Lib
[2014-04-15 10:43:14] F:\KenticoCMS\8.0\Webinstaller\Modules\DLLs\WindowsServices\Net40\Lib\CMS.WinServiceEngine.dll
[2014-04-15 10:43:14] F:\KenticoCMS\8.0\Webinstaller\Modules\DLLs\WindowsServices\Net40\Lib\HealthMonitoringService.exe
[2014-04-15 10:43:14] F:\KenticoCMS\8.0\Webinstaller\Modules\DLLs\WindowsServices\Net40\Lib\SchedulerService.exe
[2014-04-15 10:43:14] \Webinstaller\Modules\DLLs\WindowsServices\Net45\Lib
[2014-04-15 10:43:14] F:\KenticoCMS\8.0\Webinstaller\Modules\DLLs\WindowsServices\Net45\Lib\CMS.WinServiceEngine.dll
[2014-04-15 10:43:14] \Webinstaller\Web\CMS\CMSResources
[2014-04-15 10:43:14] F:\KenticoCMS\8.0\Webinstaller\Web\CMS\CMSResources\Hotfix.resx
[2014-04-15 10:43:15] \Webinstaller\Web\CMS\Admin
[2014-04-15 10:43:15] F:\KenticoCMS\8.0\Webinstaller\Web\CMS\Admin\CMSAdministration.aspx
[2014-04-15 10:43:15] F:\KenticoCMS\8.0\Webinstaller\Web\CMS\Admin\CMSAdministration.aspx.cs
[2014-04-15 10:43:15] \Webinstaller\Web\CMS\App_Data\Install
[2014-04-15 10:43:15] F:\KenticoCMS\8.0\Webinstaller\Web\CMS\App_Data\Install\Hotfix.txt
[2014-04-15 10:43:15] F:\KenticoCMS\8.0\Webinstaller\Web\CMS\App_Data\Install\SQL.zip
[2014-04-15 10:43:15] \Webinstaller\Web\CMS\App_Themes\Default
[2014-04-15 10:43:15] F:\KenticoCMS\8.0\Webinstaller\Web\CMS\App_Themes\Default\bootstrap-additional.css
[2014-04-15 10:43:15] F:\KenticoCMS\8.0\Webinstaller\Web\CMS\App_Themes\Default\DesignMode.css
[2014-04-15 10:43:15] F:\KenticoCMS\8.0\Webinstaller\Web\CMS\App_Themes\Default\DesignMode.less
[2014-04-15 10:43:15] \Webinstaller\Web\CMS\App_Themes\Default\CMSComponents
[2014-04-15 10:43:15] F:\KenticoCMS\8.0\Webinstaller\Web\CMS\App_Themes\Default\CMSComponents\combination-panel.less
[2014-04-15 10:43:15] F:\KenticoCMS\8.0\Webinstaller\Web\CMS\App_Themes\Default\CMSComponents\header-actions.less
[2014-04-15 10:43:15] F:\KenticoCMS\8.0\Webinstaller\Web\CMS\App_Themes\Default\CMSComponents\tree.less
[2014-04-15 10:43:15] \Webinstaller\Web\CMS\App_Themes\Default\CMSModules\cms.socialmarketing
[2014-04-15 10:43:15] F:\KenticoCMS\8.0\Webinstaller\Web\CMS\App_Themes\Default\CMSModules\cms.socialmarketing\cms.socialmarketing.autopost.less
[2014-04-15 10:43:15] \Webinstaller\Web\CMS\App_Themes\Default\Images
[2014-04-15 10:43:15] F:\KenticoCMS\8.0\Webinstaller\Web\CMS\App_Themes\Default\Images\Images.zip
[2014-04-15 10:43:15] \Webinstaller\Web\CMS\CMSAdminControls\UI\PageElements
[2014-04-15 10:43:15] F:\KenticoCMS\8.0\Webinstaller\Web\CMS\CMSAdminControls\UI\PageElements\BreadCrumbs.ascx.cs
[2014-04-15 10:43:15] \Webinstaller\Web\CMS\CMSAdminControls\UI\UIProfiles
[2014-04-15 10:43:15] F:\KenticoCMS\8.0\Webinstaller\Web\CMS\CMSAdminControls\UI\UIProfiles\UIMenu.ascx.cs
[2014-04-15 10:43:15] \Webinstaller\Web\CMS\CMSMasterPages\UI
[2014-04-15 10:43:15] F:\KenticoCMS\8.0\Webinstaller\Web\CMS\CMSMasterPages\UI\Tree.master
[2014-04-15 10:43:15] F:\KenticoCMS\8.0\Webinstaller\Web\CMS\CMSMasterPages\UI\Tree.master.cs
[2014-04-15 10:43:15] F:\KenticoCMS\8.0\Webinstaller\Web\CMS\CMSMasterPages\UI\Tree.master.designer.cs
[2014-04-15 10:43:15] \Webinstaller\Web\CMS\CMSModules\AdminControls\Controls\Class
[2014-04-15 10:43:15] F:\KenticoCMS\8.0\Webinstaller\Web\CMS\CMSModules\AdminControls\Controls\Class\ClassFields.ascx.cs
[2014-04-15 10:43:15] F:\KenticoCMS\8.0\Webinstaller\Web\CMS\CMSModules\AdminControls\Controls\Class\Layout.ascx.cs
[2014-04-15 10:43:15] F:\KenticoCMS\8.0\Webinstaller\Web\CMS\CMSModules\AdminControls\Controls\Class\NewClassWizard.ascx.cs
[2014-04-15 10:43:15] \Webinstaller\Web\CMS\CMSModules\AdminControls\Controls\Documents
[2014-04-15 10:43:15] F:\KenticoCMS\8.0\Webinstaller\Web\CMS\CMSModules\AdminControls\Controls\Documents\Documents.ascx.cs
[2014-04-15 10:43:15] \Webinstaller\Web\CMS\CMSModules\AdminControls\Controls\MetaFiles
[2014-04-15 10:43:15] F:\KenticoCMS\8.0\Webinstaller\Web\CMS\CMSModules\AdminControls\Controls\MetaFiles\FileList.ascx.cs
[2014-04-15 10:43:15] \Webinstaller\Web\CMS\CMSModules\AdminControls\Controls\UIControls
[2014-04-15 10:43:15] F:\KenticoCMS\8.0\Webinstaller\Web\CMS\CMSModules\AdminControls\Controls\UIControls\GeneralSelector.ascx.cs
[2014-04-15 10:43:15] \Webinstaller\Web\CMS\CMSModules\Content\CMSDesk
[2014-04-15 10:43:15] F:\KenticoCMS\8.0\Webinstaller\Web\CMS\CMSModules\Content\CMSDesk\Default.aspx.cs
[2014-04-15 10:43:15] \Webinstaller\Web\CMS\CMSModules\Content\CMSDesk\Properties
[2014-04-15 10:43:15] F:\KenticoCMS\8.0\Webinstaller\Web\CMS\CMSModules\Content\CMSDesk\Properties\CreateWireframe.aspx
[2014-04-15 10:43:15] F:\KenticoCMS\8.0\Webinstaller\Web\CMS\CMSModules\Content\CMSDesk\Properties\CreateWireframe.aspx.cs
[2014-04-15 10:43:15] F:\KenticoCMS\8.0\Webinstaller\Web\CMS\CMSModules\Content\CMSDesk\Properties\CreateWireframe.aspx.designer.cs
[2014-04-15 10:43:15] F:\KenticoCMS\8.0\Webinstaller\Web\CMS\CMSModules\Content\CMSDesk\Properties\LinkedDocs.aspx.cs
[2014-04-15 10:43:15] F:\KenticoCMS\8.0\Webinstaller\Web\CMS\CMSModules\Content\CMSDesk\Properties\LinkedDocs.xml
[2014-04-15 10:43:15] \Webinstaller\Web\CMS\CMSModules\Content\Controls
[2014-04-15 10:43:15] F:\KenticoCMS\8.0\Webinstaller\Web\CMS\CMSModules\Content\Controls\DragOperation.ascx
[2014-04-15 10:43:15] \Webinstaller\Web\CMS\CMSModules\Content\Controls\Dialogs\General
[2014-04-15 10:43:15] F:\KenticoCMS\8.0\Webinstaller\Web\CMS\CMSModules\Content\Controls\Dialogs\General\WidthHeightSelector.ascx.cs
[2014-04-15 10:43:15] \Webinstaller\Web\CMS\CMSModules\Content\Controls\Relationships
[2014-04-15 10:43:15] F:\KenticoCMS\8.0\Webinstaller\Web\CMS\CMSModules\Content\Controls\Relationships\AddRelatedDocument.ascx
[2014-04-15 10:43:15] F:\KenticoCMS\8.0\Webinstaller\Web\CMS\CMSModules\Content\Controls\Relationships\AddRelatedDocument.ascx.cs
[2014-04-15 10:43:15] F:\KenticoCMS\8.0\Webinstaller\Web\CMS\CMSModules\Content\Controls\Relationships\AddRelatedDocument.ascx.designer.cs
[2014-04-15 10:43:15] \Webinstaller\Web\CMS\CMSModules\Content\FormControls\Relationships
[2014-04-15 10:43:15] F:\KenticoCMS\8.0\Webinstaller\Web\CMS\CMSModules\Content\FormControls\Relationships\RelatedDocuments.ascx.cs
[2014-04-15 10:43:15] \Webinstaller\Web\CMS\CMSModules\DocumentTypes\Pages\Development
[2014-04-15 10:43:15] F:\KenticoCMS\8.0\Webinstaller\Web\CMS\CMSModules\DocumentTypes\Pages\Development\HierarchicalTransformations_New.aspx.cs
[2014-04-15 10:43:16] \Webinstaller\Web\CMS\CMSModules\PortalEngine\Controls\Layout
[2014-04-15 10:43:16] F:\KenticoCMS\8.0\Webinstaller\Web\CMS\CMSModules\PortalEngine\Controls\Layout\PageTemplateFlatSelector.ascx.cs
[2014-04-15 10:43:16] F:\KenticoCMS\8.0\Webinstaller\Web\CMS\CMSModules\PortalEngine\Controls\Layout\PageTemplateTree.ascx.cs
[2014-04-15 10:43:16] \Webinstaller\Web\CMS\CMSModules\PortalEngine\Controls\OnSiteEdit
[2014-04-15 10:43:16] F:\KenticoCMS\8.0\Webinstaller\Web\CMS\CMSModules\PortalEngine\Controls\OnSiteEdit\EditToolbar.ascx
[2014-04-15 10:43:16] F:\KenticoCMS\8.0\Webinstaller\Web\CMS\CMSModules\PortalEngine\Controls\OnSiteEdit\EditToolbar.ascx.cs
[2014-04-15 10:43:16] \Webinstaller\Web\CMS\CMSModules\PortalEngine\FormControls\PageTemplates
[2014-04-15 10:43:16] F:\KenticoCMS\8.0\Webinstaller\Web\CMS\CMSModules\PortalEngine\FormControls\PageTemplates\LevelTree.ascx.cs
[2014-04-15 10:43:16] \Webinstaller\Web\CMS\CMSModules\Scheduler\Pages
[2014-04-15 10:43:16] F:\KenticoCMS\8.0\Webinstaller\Web\CMS\CMSModules\Scheduler\Pages\Tab_Tasks.aspx.cs
[2014-04-15 10:43:16] \Webinstaller\Web\CMS\CMSModules\Settings\Pages
[2014-04-15 10:43:16] F:\KenticoCMS\8.0\Webinstaller\Web\CMS\CMSModules\Settings\Pages\Categories.aspx
[2014-04-15 10:43:16] F:\KenticoCMS\8.0\Webinstaller\Web\CMS\CMSModules\Settings\Pages\Categories.aspx.designer.cs
[2014-04-15 10:43:16] \Webinstaller\Web\CMS\CMSResources
[2014-04-15 10:43:16] F:\KenticoCMS\8.0\Webinstaller\Web\CMS\CMSResources\Hotfix.resx
[2014-04-15 10:43:16] \Webinstaller\Web\CMS\CMSScripts
[2014-04-15 10:43:16] F:\KenticoCMS\8.0\Webinstaller\Web\CMS\CMSScripts\cmsedit.js
[2014-04-15 10:43:16] \Webinstaller\Web\CMS\CMSScripts\CMSModules\CMS
[2014-04-15 10:43:16] F:\KenticoCMS\8.0\Webinstaller\Web\CMS\CMSScripts\CMSModules\CMS\AppList.js
[2014-04-15 10:43:16] \Webinstaller\Web\CMS\CMSScripts\Controls
[2014-04-15 10:43:16] F:\KenticoCMS\8.0\Webinstaller\Web\CMS\CMSScripts\Controls\MessagesPlaceHolder.js
[2014-04-15 10:43:16] \Webinstaller\Web\CMS\CMSScripts\Dialogs
[2014-04-15 10:43:16] F:\KenticoCMS\8.0\Webinstaller\Web\CMS\CMSScripts\Dialogs\RelationshipEditor.js
[2014-04-15 10:43:16] \Webinstaller\Web\CMS\Controllers\CorporateSite
[2014-04-15 10:43:16] F:\KenticoCMS\8.0\Webinstaller\Web\CMS\Controllers\CorporateSite\NewsController.cs
[2014-04-15 10:43:16] \Webinstaller\Web\CMS\Old_App_Code\CMS
[2014-04-15 10:43:16] F:\KenticoCMS\8.0\Webinstaller\Web\CMS\Old_App_Code\CMS\UpgradeProcedure.cs
[2014-04-15 10:43:16] \Webinstaller\Web\CMS\Old_App_Code\CMSModules\WebFarm
[2014-04-15 10:43:16] F:\KenticoCMS\8.0\Webinstaller\Web\CMS\Old_App_Code\CMSModules\WebFarm\WebFarmServerEditExtender.cs
[2014-04-15 10:43:16] All operations have been successfully finished.
